Task 1: 
14
Task 2: 
{Leaving	=14, Breakfast	=14, Sleeping=14, Snack	=11, Grooming	=51, Showering	=14, Spare_Time/TV=77, Toileting	=44, Lunch=9}
Task 3: 
{1={Leaving	=1, Breakfast	=1, Sleeping=1, Grooming	=3, Showering	=1, Spare_Time/TV=6, Toileting	=2, Lunch=1},
2={Breakfast	=1, Sleeping=1, Snack	=1, Grooming	=4, Showering	=1, Spare_Time/TV=7, Toileting	=3, Lunch=1},
3={Leaving	=1, Breakfast	=1, Sleeping=1, Grooming	=3, Showering	=1, Spare_Time/TV=4, Toileting	=2},
4={Leaving	=1, Breakfast	=1, Sleeping=1, Snack	=2, Grooming	=2, Showering	=1, Spare_Time/TV=6, Toileting	=4},
5={Leaving	=2, Breakfast	=1, Sleeping=1, Snack	=1, Grooming	=6, Showering	=1, Spare_Time/TV=7, Toileting	=5, Lunch=1},
6={Breakfast	=1, Sleeping=1, Snack	=1, Grooming	=4, Showering	=1, Spare_Time/TV=5, Toileting	=3, Lunch=1},
7={Leaving	=1, Breakfast	=1, Sleeping=1, Snack	=2, Grooming	=5, Showering	=1, Spare_Time/TV=8, Toileting	=6, Lunch=1},
8={Leaving	=1, Breakfast	=1, Sleeping=1, Grooming	=5, Showering	=1, Spare_Time/TV=4, Toileting	=1},
9={Leaving	=2, Breakfast	=1, Sleeping=1, Grooming	=5, Showering	=1, Spare_Time/TV=6, Toileting	=2},
10={Leaving	=1, Breakfast	=1, Sleeping=1, Grooming	=4, Showering	=1, Spare_Time/TV=4, Toileting	=1},
11={Leaving	=1, Breakfast	=1, Sleeping=1, Grooming	=3, Showering	=1, Spare_Time/TV=3, Toileting	=2, Lunch=1},
28={Leaving	=1, Breakfast	=1, Sleeping=1, Snack	=1, Grooming	=2, Showering	=1, Spare_Time/TV=3, Toileting	=3, Lunch=1},
29={Leaving	=1, Breakfast	=1, Sleeping=1, Snack	=1, Grooming	=3, Showering	=1, Spare_Time/TV=6, Toileting	=4, Lunch=1},
30={Leaving	=1, Breakfast	=1, Sleeping=1, Snack	=2, Grooming	=2, Showering	=1, Spare_Time/TV=8, Toileting	=6, Lunch=1}}
Task 4: 
{Leaving	=1970-01-01T02:00:01.658+02:00, Sleeping=1970-01-01T02:00:07.856+02:00, Spare_Time/TV=1970-01-01T01:59:25.311+02:00}
Task 5: 
[Snack	]
